0.001749 0.001862 0.001982 0.002110 0.002247 0.002393 0.002549 0.002716 0.002895 0.003088 0.003295 0.003518 0.003759 0.004018 0.004298 0.004601 0.004927 0.005279 0.005656 0.006058 0.006482 0.006926 0.007378 0.007826 0.008244 0.008598 0.008837 0.008893 0.008688 0.008154 0.007257 0.006039 0.004604 0.003002 0.001071 0.001411 0.003904 0.004835 0.003840 0.002375 0.002245 0.003850 0.006437 0.009082 0.011224 0.012686 0.013522 0.013870 0.013875 0.013655 0.013299 0.012866 0.012396 0.011916 0.011440 0.010979 0.010538 0.010119 0.009724 0.009352 
0.001701 0.001812 0.001932 0.002059 0.002195 0.002342 0.002498 0.002667 0.002850 0.003047 0.003260 0.003492 0.003745 0.004022 0.004324 0.004657 0.005022 0.005425 0.005868 0.006358 0.006897 0.007489 0.008132 0.008824 0.009550 0.010284 0.010976 0.011547 0.011885 0.011846 0.011291 0.010147 0.008472 0.006413 0.003923 0.000597 0.003268 0.005174 0.004132 0.002184 0.002532 0.005381 0.009105 0.012326 0.014509 0.015687 0.016107 0.016024 0.015640 0.015093 0.014469 0.013821 0.013181 0.012565 0.011981 0.011433 0.010921 0.010445 0.010002 0.009592 
0.001639 0.001748 0.001865 0.001989 0.002123 0.002267 0.002422 0.002590 0.002772 0.002969 0.003185 0.003420 0.003679 0.003964 0.004281 0.004632 0.005024 0.005463 0.005957 0.006515 0.007147 0.007863 0.008674 0.009589 0.010613 0.011735 0.012930 0.014132 0.015229 0.016037 0.016308 0.015767 0.014220 0.011689 0.008347 0.004001 0.001571 0.005407 0.005230 0.002643 0.004074 0.008872 0.013816 0.017198 0.018877 0.019313 0.019000 0.018294 0.017414 0.016484 0.015568 0.014699 0.013888 0.013141 0.012455 0.011826 0.011250 0.010723 0.010239 0.009793 
0.001565 0.001670 0.001783 0.001903 0.002033 0.002172 0.002323 0.002486 0.002664 0.002858 0.003070 0.003303 0.003561 0.003848 0.004167 0.004525 0.004929 0.005387 0.005910 0.006509 0.007200 0.008000 0.008929 0.010010 0.011265 0.012710 0.014353 0.016174 0.018112 0.020033 0.021689 0.022666 0.022368 0.020156 0.015832 0.009991 0.002813 0.004633 0.008701 0.004734 0.008400 0.015878 0.021443 0.023907 0.024180 0.023306 0.021957 0.020486 0.019055 0.017729 0.016528 0.015450 0.014484 0.013620 0.012845 0.012147 0.011517 0.010946 0.010427 0.009954 
0.001480 0.001580 0.001687 0.001802 0.001925 0.002058 0.002202 0.002359 0.002529 0.002715 0.002920 0.003145 0.003395 0.003675 0.003987 0.004340 0.004740 0.005197 0.005723 0.006331 0.007041 0.007872 0.008851 0.010009 0.011380 0.013005 0.014923 0.017174 0.019791 0.022791 0.026135 0.029627 0.032655 0.033768 0.030736 0.022871 0.013668 0.000875 0.018000 0.009561 0.018070 0.028146 0.032191 0.031880 0.029727 0.027113 0.024597 0.022355 0.020409 0.018733 0.017288 0.016036 0.014944 0.013986 0.013140 0.012387 0.011715 0.011111 0.010565 0.010070 
0.001385 0.001479 0.001579 0.001687 0.001803 0.001928 0.002063 0.002210 0.002370 0.002545 0.002738 0.002951 0.003187 0.003451 0.003747 0.004083 0.004464 0.004901 0.005405 0.005991 0.006675 0.007480 0.008432 0.009563 0.010912 0.012526 0.014464 0.016809 0.019685 0.023296 0.027983 0.034251 0.042597 0.052627 0.060745 0.058141 0.041896 0.024306 0.035333 0.017124 0.036675 0.045571 0.043992 0.039177 0.034240 0.029998 0.026518 0.023683 0.021357 0.019428 0.017809 0.016434 0.015253 0.014229 0.013333 0.012543 0.011842 0.011214 0.010651 0.010141 
0.001282 0.001369 0.001462 0.001562 0.001669 0.001784 0.001909 0.002044 0.002191 0.002353 0.002530 0.002725 0.002943 0.003185 0.003458 0.003765 0.004115 0.004515 0.004976 0.005509 0.006131 0.006858 0.007714 0.008722 0.009916 0.011333 0.013030 0.015095 0.017688 0.021130 0.026065 0.033756 0.046494 0.067797 0.100720 0.138671 0.142876 0.103685 0.017832 0.035146 0.064582 0.060861 0.051398 0.043060 0.036523 0.031464 0.027514 0.024383 0.021862 0.019798 0.018084 0.016641 0.015410 0.014349 0.013426 0.012615 0.011897 0.011257 0.010684 0.010167 
0.001173 0.001252 0.001337 0.001427 0.001524 0.001629 0.001742 0.001864 0.001997 0.002142 0.002301 0.002477 0.002671 0.002887 0.003129 0.003401 0.003709 0.004059 0.004460 0.004920 0.005450 0.006061 0.006769 0.007586 0.008531 0.009622 0.010892 0.012399 0.014272 0.016793 0.020571 0.026856 0.038086 0.058899 0.098644 0.180371 0.370292 0.737704 0.049334 0.104357 0.074014 0.061083 0.051318 0.043273 0.036826 0.031742 0.027735 0.024546 0.021976 0.019875 0.018133 0.016668 0.015423 0.014351 0.013420 0.012604 0.011883 0.011241 0.010666 0.010148 
0.001058 0.001129 0.001205 0.001287 0.001373 0.001466 0.001566 0.001674 0.001792 0.001919 0.002058 0.002211 0.002379 0.002566 0.002773 0.003005 0.003265 0.003557 0.003887 0.004261 0.004683 0.005159 0.005693 0.006288 0.006944 0.007660 0.008438 0.009295 0.010292 0.011587 0.013525 0.016744 0.022201 0.030762 0.041441 0.046157 0.019147 0.064237 0.471611 0.274060 0.125297 0.075676 0.055191 0.044108 0.036832 0.031546 0.027508 0.024334 0.021787 0.019708 0.017984 0.016536 0.015304 0.014244 0.013324 0.012516 0.011803 0.011168 0.010600 0.010087 
